{
  "title": "A review to SPN",
  "authors": [
    {
      "name": "User_4",
      "id": "0000-0001-1234-0004",
      "pkh": "tz1b7tUupMgCNw2cCLpKTkSD1NZzB5TkP2sv"
    }
  ],
  "tags": ["Review", "SPN"],
  "article_abstract": "Praesent in sapien. Lorem ipsum dolor sit amet, consectetuer adipiscing elit. Duis fringilla tristique neque. Sed interdum libero ut metus. Pellentesque placerat. Nam rutrum augue a leo. Morbi sed elit sit amet ante lobortis sollicitudin. Praesent blandit blandit mauris. Praesent lectus tellus, aliquet aliquam, luctus a, egestas a, turpis. Mauris lacinia lorem sit amet ipsum. Nunc quis urna dictum turpis accumsan semper.",
  "article_version": "1",
  "next_version": "",
  "previous_version": "",
  "reviewed_article_id": "1",
  "reviews": [],
  "comments": [],
  "submitter_pkh": "tz1b7tUupMgCNw2cCLpKTkSD1NZzB5TkP2sv",
  "hash_contract": "KT1GcC2fMSSqF9jXNoxsGzNHnpVkthBFshFn",
  "date": "2019-8-11 16:35:26",
  "review_score": "2",
  "expertise_score": "4"
}
