{
  "Hash": "tz1ddb9NMYHZi5UzPdzTZMYQQZoMub195zgv",
  "Public Key": "edpkv8EUUH68jmo3f7Um5PezmfGrRF24gnfLpH3sVNwJnV5bVCxL2n",
  "Secret Key": "edsk4QLrcijEffxV31gGdN2HU7UpyJjA8drFoNcmnB28n89YjPNRFm"
}
